{
    "type": "object",
    "properties": {
        "meta": {"type": "object"},
        "data": {
            "type": "array",
            "items": [
                {
                    "type": "object",
                    "properties": {
                        "id": {"type": "string"},
                        "name": {"type": "string"}
                    }
                }
            ]
        }
    }
}